%YAML 1.1
%TAG !u! tag:unity3d.com,2011:
--- !u!1045 &1
EditorBuildSettings:
  m_ObjectHideFlags: 0
  serializedVersion: 2
  m_Scenes:
  - enabled: 1
    path: Assets/Imagenes/Scenes/Main.unity
    guid: 2cda990e2423bbf4892e6590ba056729
  - enabled: 1
    path: Assets/Imagenes/Scenes/SaltoJuego.unity
    guid: ebaa65ad426110345910f5b8197d4c1d
  m_configObjects: {}
